%YAML 1.1
%TAG !u! tag:unity3d.com,2011:
--- !u!114 &11400000
MonoBehaviour:
  m_ObjectHideFlags: 0
  m_CorrespondingSourceObject: {fileID: 0}
  m_PrefabInstance: {fileID: 0}
  m_PrefabAsset: {fileID: 0}
  m_GameObject: {fileID: 0}
  m_Enabled: 1
  m_EditorHideFlags: 0
  m_Script: {fileID: 11500000, guid: 388d8c0595c28994aafd1f0f13a5ce35, type: 3}
  m_Name: NORMAL
  m_EditorClassIdentifier: 
  id: 0
  baseCooldown: 0.6
  baseSpeed: 5
  overrideBaseDamage: -1
